PSTAT 5A: Spring 2023 - PSTAT 5A: Lecture 01
…
information output by a sensing device or organ that includes both useful and irrelevant or redundant information and must be processed to be meaningful

I like the first definition, mainly because of the phrase “used as a basis for reasoning, discussion, or calculation.”

Data, though incredibly useful, is not the be-all and end-all; rather, it should be viewed as a stepping stone for further discussion and/or analysis!

Over the span of this course, we will learn the skills of data literacy. Loosely speaking, “data literacy” refers to the ability to think critically about data, and to understand not only what it is saying but also the ways in which it can be manipulated to deceive.

Example of Data

As a concrete example of a dataset, let’s explore the so-called palmerpenguins dataset.

Collected by Dr. Kristen Gorman at the Palmer Station in Antarctica, this dataset contains various measurements of 344 different penguins Dr. Gorman encountered.

# A tibble: 344 × 8
   species island    bill_length_mm bill_depth_mm flipper_…¹ body_…² sex    year
   <fct>   <fct>              <dbl>         <dbl>      <int>   <int> <fct> <int>
 1 Adelie  Torgersen           39.1          18.7        181    3750 male   2007
 2 Adelie  Torgersen           39.5          17.4        186    3800 fema…  2007
 3 Adelie  Torgersen           40.3          18          195    3250 fema…  2007
 4 Adelie  Torgersen           NA            NA           NA      NA <NA>   2007
 5 Adelie  Torgersen           36.7          19.3        193    3450 fema…  2007
 6 Adelie  Torgersen           39.3          20.6        190    3650 male   2007
 7 Adelie  Torgersen           38.9          17.8        181    3625 fema…  2007
 8 Adelie  Torgersen           39.2          19.6        195    4675 male   2007
 9 Adelie  Torgersen           34.1          18.1        193    3475 <NA>   2007
10 Adelie  Torgersen           42            20.2        190    4250 <NA>   2007
# … with 334 more rows, and abbreviated variable names ¹​flipper_length_mm,
#   ²​body_mass_g
…
